[gd_scene load_steps=3 format=2]

[ext_resource path="res://assets/World/Bush.png" type="Texture" id=1]

[sub_resource type="RectangleShape2D" id=1]
extents = Vector2( 8, 5 )

[node name="Bush" type="StaticBody2D"]
collision_mask = 0

[node name="Sprite" type="Sprite" parent="."]
position = Vector2( 0, -4 )
texture = ExtResource( 1 )

[node name="CollisionShape2D" type="CollisionShape2D" parent="."]
shape = SubResource( 1 )
